filename,width,height,class,xmin,ymin,xmax,ymax
IMG_2256.JPEG,1536,2048,screwdriver,397,563,1352,754
IMG_2190.JPEG,1536,2048,screwdriver,409,1051,646,1585
IMG_2190.JPEG,1536,2048,screwdriver,646,960,843,1514
IMG_2202.JPEG,1536,2048,sledgehammer,203,974,1069,1508
IMG_2182.JPEG,1536,2048,screwdriver,249,614,897,1480
IMG_2218.JPEG,1536,2048,hammer,152,565,1369,1428
IMG_2180.JPEG,1536,2048,screwdriver,172,923,1343,1100
IMG_2206.JPEG,1536,2048,sledgehammer,466,794,843,1808
IMG_2187.JPEG,1536,2048,screwdriver,820,683,1529,811
IMG_2187.JPEG,1536,2048,screwdriver,889,794,1535,1125
IMG_2251.JPEG,2048,1536,screwdriver,484,601,1418,1258
IMG_2211.JPEG,1536,2048,sledgehammer,423,863,1017,1885
IMG_2203.JPEG,1536,2048,sledgehammer,655,911,1526,2048
IMG_2217.JPEG,1536,2048,hammer,1,283,1443,1348
IMG_2208.JPEG,1536,2048,sledgehammer,695,163,1349,1397
IMG_2205.JPEG,1536,2048,sledgehammer,469,891,823,1805
IMG_2219.JPEG,1536,2048,hammer,543,483,992,1674
IMG_2178.JPEG,1536,2048,screwdriver,417,1074,1112,1637
IMG_2181.JPEG,1536,2048,screwdriver,400,631,946,1554
IMG_2243.JPEG,2048,1536,hammer,635,477,1448,988
IMG_2214.JPEG,1536,2048,hammer,323,531,1066,1614
IMG_2237.JPEG,2048,1536,hammer,599,558,1909,1073
IMG_2241.JPEG,2048,1536,hammer,782,454,1392,1350
IMG_2212.JPEG,1536,2048,hammer,589,600,997,1743
IMG_2199.JPEG,1536,2048,hammer,435,894,1069,1560
IMG_2213.JPEG,1536,2048,hammer,763,757,1135,1685
IMG_2201.JPEG,1536,2048,sledgehammer,372,885,1080,1580
IMG_2188.JPEG,1536,2048,screwdriver,349,751,480,1345
IMG_2188.JPEG,1536,2048,screwdriver,406,711,860,1117
IMG_2246.JPEG,2048,1536,screwdriver,1097,397,1271,1250
IMG_2204.JPEG,1536,2048,sledgehammer,872,714,1232,1691
IMG_2195.JPEG,1536,2048,hammer,252,531,1409,1154
IMG_2189.JPEG,1536,2048,screwdriver,595,1177,843,1668
IMG_2189.JPEG,1536,2048,screwdriver,695,1077,875,1571
IMG_2198.JPEG,1536,2048,hammer,329,951,1243,1780
IMG_2253.JPEG,1536,2048,screwdriver,295,945,1200,1280
IMG_2215.JPEG,1536,2048,hammer,346,460,1272,1851
IMG_2240.JPEG,2048,1536,hammer,480,671,1646,1246
IMG_2245.JPEG,2048,1536,screwdriver,846,654,1509,1397
IMG_2209.JPEG,1536,2048,sledgehammer,649,183,1166,1417
IMG_2197.JPEG,1536,2048,hammer,389,728,1277,1903
IMG_2196.JPEG,1536,2048,hammer,283,637,1449,1248
IMG_2255.JPEG,1536,2048,screwdriver,1,483,1480,785
IMG_2216.JPEG,1536,2048,hammer,463,411,1186,1803
IMG_2249.JPEG,2048,1536,screwdriver,550,1,863,1536
IMG_2250.JPEG,2048,1536,screwdriver,480,616,1360,1536
IMG_2238.JPEG,2048,1536,hammer,482,443,1639,986
IMG_2185.JPEG,1536,2048,screwdriver,886,608,1123,1700
IMG_2185.JPEG,1536,2048,screwdriver,335,674,1012,1528
IMG_2248.JPEG,2048,1536,screwdriver,399,1,786,1514
IMG_2200.JPEG,1536,2048,hammer,343,914,1135,1468
IMG_2183.JPEG,1536,2048,screwdriver,489,711,1140,1463
IMG_2247.JPEG,2048,1536,screwdriver,284,497,1182,943
IMG_2244.JPEG,2048,1536,hammer,590,737,1331,1295
IMG_2184.JPEG,1536,2048,screwdriver,440,85,737,1648
IMG_2177.JPEG,1536,2048,screwdriver,215,1080,1069,1274
IMG_2186.JPEG,1536,2048,screwdriver,486,694,1029,1174
IMG_2186.JPEG,1536,2048,screwdriver,457,660,1172,840
IMG_2233.JPEG,1536,2048,sledgehammer,292,568,1280,1348
IMG_2194.JPEG,1536,2048,hammer,109,405,1500,1037
IMG_2239.JPEG,2048,1536,hammer,701,690,1903,1360
IMG_2220.JPEG,1536,2048,hammer,786,894,1337,1883
IMG_2234.JPEG,2048,1536,sledgehammer,507,275,1605,958
IMG_2252.JPEG,1536,2048,screwdriver,360,345,977,1357
IMG_2207.JPEG,1536,2048,sledgehammer,80,360,1386,1343
IMG_2179.JPEG,1536,2048,screwdriver,580,694,740,1408
IMG_2176.JPEG,1536,2048,screwdriver,532,797,1106,1214
IMG_2232.JPEG,1536,2048,hammer,395,660,892,1557
